makeDerivationTree START
	public static DerivationTree makeDerivationTree(ControlFlow cf, ArrayList<CfgNode> cfgs, 
			CfgNode sink, DepGraph depGraph) throws SISLException
	{
		if(cfgs == null) 
		{
			D.pf(D.D_DT, " Empty list of Cfg nodes passed to makeDerivationTree");
			return null;
		}
		
		D.pr(D.D_TEMP, "Transition_Look: makeDerivationTree all cfg nodes - " + CfgNode.getProgLinesSorted(cfgs));
	
/*	
		CfgNode root = locateRootOfTree(cfgs, sink);
		cfgs.remove(sink);
		
		DerivationTree dt = new DerivationTree();
		dt.depGraph = depGraph;
		dt.sink = sink;
		
		ArrayList<DerivationNode> dn = new ArrayList<DerivationNode>();
		
		boolean bRoot = true; 
		// first element is the root; 
		for(CfgNode cn : cfgs)
		{
			if(cn.equals(root))
			{
				DerivationNode rootNode = dt.toDN(true, cn, dn, cf);
				dt.setRoot(rootNode);
			}
			else
				dt.toDN(false, cn, dn, cf);
		}

		for(DerivationNode dnTmp : dn)
		{
			D.pv(D.D_TEMP, "################ Before branch Derivation node - " + dnTmp.dotName());
		}
*/

		cfgs.remove(sink);
		
		DerivationTree dt = new DerivationTree();
		dt.setAssocCfgNodes(cfgs);
		dt.depGraph = depGraph;
		dt.sink = sink;
		
		DerivationTree.visitedIds = new ArrayList<DerivationNode>();
		
		ArrayList<DerivationNode> dn = new ArrayList<DerivationNode>();
		
		boolean bRoot = true; 
		// first element is the root; 
		for(CfgNode cn : cfgs)
		{
//			if(cn.equals(root))
//			{
//				DerivationNode rootNode = dt.toDN(true, cn, dn, cf);
//				dt.setRoot(rootNode);
//			}
//			else
				dt.toDN(cn, dn, cf);
		}

		for(DerivationNode dnTmp : dn)
		{
			D.pr(D.D_TEMP, "################ Before branch Derivation node - " + dnTmp.dotName());
		}

		DerivationNode rootDN = locateRootOfTree(dn, sink, cf);

//		DerivationNode rootDN = dt.getRoot();
		dt.setRoot(rootDN);
		
		rootDN.setBranches(dn, cfgs);
		
		for(DerivationNode dnTmp : rootDN.getBfOrder())
		{
			D.pr(D.D_TEMP, "################ Derivation node - " + dnTmp.dotName());
		}

		rootDN.initPlaceholderArgs();
		
		DerivationTree.dumpDerivationTree(dt,  "__beforeSymEval__");

		dt.symEvalArith();
		
		rootDN.adjustLeafStatus();

		ArrayList<DerivationNode> leaves = rootDN.getLeavesInOrder();
		DerivationNode leaf = null;		
		int iLeafs = leaves.size();
		for(int i = 0; i < iLeafs; i++)
		{
			leaf = leaves.get(i);
			if(i > 0)
				leaf.setImmPreds(leaves.get(i-1));
			if(i < iLeafs - 1)
				leaf.setImmSuccs(leaves.get(i+1));
			
			D.pd(D.D_DT, "Transition_Look: LEAF In order - " + leaf.toString());
		}
		dt.setFirstLeaf(leaves.get(0));
//		DerivationTree.dumpDerivationTree(dt,  "__afterSymEval__");

		//mali: transforming dt for context analysis
		ArrayList<DerivationNode> nodeList = dt.bfOrder();
		for(DerivationNode dn1: nodeList){

			if(dn1.getParent().getChildren().size() == 1 && dn1.getChildren().size() == 0){//if the node is a leaf, we find the same node with same ID, and append the children

				ArrayList<DerivationNode> searchNodeList = dt.bfOrder();
				for(DerivationNode dns: searchNodeList){

					if(dn1.getId().equals(dns.getId()) && dn1.nodeNumber != dns.nodeNumber){//same Id, differnt nodes

						if(dns.getChildren().size() != 0){

							dn1.setChildren(dns.getChildren());
						}
						break;
					}
				}
				

			}
		}
		
		return dt; 
	}
makeDerivationTree END
