1 1 
0 2 
2 2 
2 0 
4 1 
4 1 
4 1 
4 1 
4 1 
4 1 
4 1 
4 1 
4 1 
4 1 
4 1 
4 1 
4 1 
4 1 
4 1 
4 1 
4 1 
4 1 
4 1 
4 1 
4 1 
4 1 
4 1 
4 1 
4 1 
4 1 
4 1 
4 1 
4 1 
4 1 
4 1 
4 1 
4 1 
4 1 
4 1 
4 1 
4 1 
4 1 
4 1 
4 1 
4 1 
4 1 
4 1 
4 1 
4 1 
4 1 
4 1 
4 1 
4 1 
4 1 
4 1 
4 1 
4 1 
4 1 
4 1 
4 1 
4 1 
4 1 
4 1 
5 1 
5 1 
5 1 
5 1 
5 1 
5 1 
5 1 
6 1 
6 1 
7 1 
7 3 
8 1 
3 1 
3 1 
3 1 
3 3 
3 5 
3 4 
3 3 
3 4 
3 2 
3 3 
9 1 
9 1 
10 7 
10 8 
10 6 
10 7 
11 3 
11 1 
13 3 
13 1 
15 3 
15 1 
12 1 
12 3 
14 1 
14 2 
16 1 
16 2 
17 3 
17 1 
18 3 
19 3 
19 1 
20 3 
21 2 
21 0 
22 1 
22 1 
22 1 
22 1 
23 3 
23 7 
23 10 
23 5 
23 7 
23 9 
23 5 
23 3 
23 3 
23 3 
23 3 
23 3 
23 3 
23 1 
23 2 
23 5 
23 7 
23 9 
23 5 
23 6 
23 3 
23 3 
23 2 
23 1 
24 1 
24 1 
25 0 
25 2 
26 8 
27 0 
27 4 
28 1 
28 3 
29 0 
29 1 
30 0 
30 1 
31 10 
32 7 
32 6 
32 5 
33 1 
33 2 
33 2 
34 0 
34 2 
35 0 
35 2 
36 0 
36 2 
37 1 
37 3 
38 1 
38 4 
39 1 
39 4 
40 1 
40 1 
40 4 
41 1 
41 3 
42 3 
43 3 
43 4 
43 4 
43 5 
44 0 
44 5 
44 4 
46 1 
46 1 
47 1 
47 4 
48 0 
48 6 
50 0 
50 7 
52 0 
52 2 
53 0 
53 3 
54 1 
54 2 
54 1 
55 1 
55 0 
56 1 
56 3 
57 4 
57 6 
58 1 
58 1 
58 1 
59 0 
59 1 
60 0 
60 2 
61 2 
61 3 
62 1 
62 3 
63 1 
63 2 
63 2 
64 3 
64 1 
65 1 
66 3 
66 1 
67 1 
67 3 
68 2 
68 0 
69 3 
69 3 
69 9 
69 3 
70 1 
70 3 
71 0 
71 2 
72 4 
72 5 
72 4 
72 4 
72 4 
73 3 
74 1 
74 1 
75 1 
75 3 
76 1 
76 1 
77 0 
77 1 
78 1 
78 2 
79 1 
79 1 
79 1 
79 1 
79 1 
79 1 
80 1 
80 3 
81 1 
81 3 
82 3 
82 1 
83 0 
83 1 
84 1 
84 3 
84 3 
84 4 
84 4 
84 1 
84 2 
84 3 
84 3 
84 3 
84 3 
84 3 
84 3 
84 3 
84 3 
84 3 
84 3 
84 3 
84 3 
84 2 
84 2 
84 2 
84 2 
84 3 
84 3 
84 3 
84 3 
84 3 
84 3 
84 3 
84 3 
84 3 
84 3 
84 3 
84 3 
84 3 
84 3 
84 3 
84 3 
84 3 
84 2 
84 2 
84 2 
84 2 
84 3 
84 3 
84 3 
84 3 
84 3 
84 3 
84 3 
84 3 
84 3 
84 3 
84 3 
84 5 
84 4 
84 3 
84 4 
84 4 
84 2 
84 2 
84 4 
84 2 
84 2 
84 2 
84 2 
84 2 
84 2 
84 2 
84 2 
84 2 
84 2 
84 2 
84 1 
84 3 
84 2 
84 1 
84 2 
84 4 
84 2 
84 10 
84 11 
85 7 
86 3 
86 2 
87 0 
87 4 
88 1 
88 3 
89 2 
90 2 
90 2 
90 4 
91 1 
91 1 
92 1 
92 2 
92 3 
93 1 
93 1 
94 1 
94 1 
95 0 
95 3 
96 0 
96 1 
97 0 
97 1 
98 1 
98 3 
99 4 
99 3 
99 1 
100 1 
100 1 
100 1 
100 1 
100 1 
100 1 
100 1 
100 1 
100 1 
100 1 
100 1 
100 1 
100 3 
100 2 
100 3 
100 3 
100 3 
101 0 
101 1 
102 0 
102 1 
103 1 
103 3 
103 1 
104 1 
104 3 
104 1 
105 1 
105 4 
105 4 
105 4 
105 1 
105 4 
106 1 
106 1 
106 3 
107 1 
107 4 
107 2 
108 3 
109 1 
109 4 
109 4 
109 3 
109 3 
109 3 
110 1 
110 3 
110 1 
111 1 
111 3 
111 1 
112 4 
113 3 
113 1 
114 1 
114 1 
114 0 
115 0 
115 2 
116 3 
116 1 
117 3 
117 1 
117 4 
117 2 
118 2 
118 2 
118 2 
118 2 
118 1 
118 1 
118 1 
118 1 
119 1 
119 1 
119 1 
119 1 
119 1 
119 1 
120 1 
120 4 
120 3 
120 3 
120 3 
120 6 
120 3 
121 1 
121 1 
121 1 
